…
```r
library(dplyr) # tbl_df 
tbl_df(iris)
```

```
## # A tibble: 150 × 5
##    Sepal.Length Sepal.Width Petal.Length Petal.Width Species
##           <dbl>       <dbl>        <dbl>       <dbl>  <fctr>
## 1           5.1         3.5          1.4         0.2  setosa
## 2           4.9         3.0          1.4         0.2  setosa
## 3           4.7         3.2          1.3         0.2  setosa
## 4           4.6         3.1          1.5         0.2  setosa
## 5           5.0         3.6          1.4         0.2  setosa
## 6           5.4         3.9          1.7         0.4  setosa
## 7           4.6         3.4          1.4         0.3  setosa
## 8           5.0         3.4          1.5         0.2  setosa
## 9           4.4         2.9          1.4         0.2  setosa
## 10          4.9         3.1          1.5         0.1  setosa
## # ... with 140 more rows
```
…
```
## [1] 88
```

We can use `grepl` in `dplyr::filter` to subset data frame:

```r
library(dplyr)
fruit %>% filter(grepl("M", Gender)) %>% tbl_df
```

```
## # A tibble: 88 × 9
##     Year  Foodstuff Consumption Gender `AGE16-24` `AGE25-34` `AGE35-44`
##    <int>     <fctr>      <fctr> <fctr>      <dbl>      <dbl>      <dbl>
## 1   1994     Fruits          No  Males       32.3       24.8       33.8
## 2   1994     Fruits    1-2 days  Males       40.3       45.1       40.4
## 3   1994     Fruits    3-5 days  Males       22.6       23.0       17.7
## 4   1994     Fruits    6-7 days  Males        4.8        7.1        8.1
## 5   1994 Vegetables          No  Males       21.3       22.1       25.0
## 6   1994 Vegetables    1-2 days  Males       41.0       38.1       42.7
## 7   1994 Vegetables    3-5 days  Males       31.2       30.1       22.1
## 8   1994 Vegetables    6-7 days  Males        6.6        9.7       10.3
## 9   1996     Fruits          No  Males       18.6       29.5       38.3
## 10  1996     Fruits    1-2 days  Males       47.6       43.2       34.9
## # ... with 78 more rows, and 2 more variables: `AGE45-54` <dbl>,
## #   `AGE55-64` <dbl>
```
…
