…
Plots created by base graphics appear only on the screen and you cannot assign plot to an object for later use. Everything is created in place.

You can only draw on top of the plot, you cannot modify or delete existing content.

That was theory, you can read more from ggplot2-book, this is where rubber meets the road:

library(ggplot2) # load ggplot2 library
library(dplyr) # dplyr is necessary for piping operator and for some data munging
library(tidyr)

We use ggplot2 builtin dataset mpg with fuel economy data from 1999 and 2008 for 38 models of car:

mpg

## # A tibble: 234 x 11
##    manufacturer      model displ  year   cyl      trans   drv   cty   hwy
##           <chr>      <chr> <dbl> <int> <int>      <chr> <chr> <int> <int>
##  1         audi         a4   1.8  1999     4   auto(l5)     f    18    29
##  2         audi         a4   1.8  1999     4 manual(m5)     f    21    29
##  3         audi         a4   2.0  2008     4 manual(m6)     f    20    31
##  4         audi         a4   2.0  2008     4   auto(av)     f    21    30
##  5         audi         a4   2.8  1999     6   auto(l5)     f    16    26
##  6         audi         a4   2.8  1999     6 manual(m5)     f    18    26
##  7         audi         a4   3.1  2008     6   auto(av)     f    18    27
##  8         audi a4 quattro   1.8  1999     4 manual(m5)     4    18    26
##  9         audi a4 quattro   1.8  1999     4   auto(l5)     4    16    25
## 10         audi a4 quattro   2.0  2008     4 manual(m6)     4    20    28
## # ... with 224 more rows, and 2 more variables: fl <chr>, class <chr>
…
To compare distributions we can overlay histograms and density plots. To demonstrate this, let’s create dummy dataset of two normal distributions:

df2 <- tibble(pop = rep(c("N", "S"), each = 1000), 
              value = c(rnorm(1000, 20, 3), rnorm(1000, 25, 3)))
df2

## # A tibble: 2,000 x 2
##      pop    value
##    <chr>    <dbl>
##  1     N 19.38517
##  2     N 21.19356
##  3     N 18.02291
##  4     N 16.54664
##  5     N 23.36140
##  6     N 12.47474
##  7     N 19.66393
##  8     N 19.95718
##  9     N 19.99606
## 10     N 21.00648
## # ... with 1,990 more rows
…
