…
## [1] 3

Respectively, stringr library verb is str_detect():

str_detect(y, "Area")

## [1]  TRUE  TRUE  TRUE FALSE

Filter variables

We can use grepl in dplyr::filter to subset data frame. For example we want to look at the participants with first name ‘Jaan’ in 2013 Tartu Ski Marathon finish protocol:

tm_2013 %>% filter(grepl(", Jaan", Nimi)) %>% tbl_df # Nimi is name and is given as 'lastname, firstname'.

## # A tibble: 103 x 7
##     Koht    Nr             Nimi            Elukoht     Aeg Vanuseklass
##    <int> <int>            <chr>              <chr>   <chr>       <chr>
##  1   166   119  Laidvee, Jaanus      Harju maakond 3:11:07         M35
##  2   197   249       Jõgi, Jaan       Võru maakond 3:13:21         M60
##  3   219   248  Undrest, Jaanus Lääne-Viru maakond 3:15:25         M35
##  4   289   237   Bauman, Jaanus Lääne-Viru maakond 3:19:37         M35
##  5   388   626 Johanson, Jaanus   Viljandi maakond 3:24:42         M40
##  6   499   345   Ritson, Jaanus      Harju maakond 3:29:41         M40
##  7   567   908 Tiisvend, Jaanus      Harju maakond 3:32:42         M35
##  8   638   564    Koval, Jaanus      Harju maakond 3:35:33         M21
##  9   710   532     Olop, Jaanus      Harju maakond 3:37:32         M40
## 10   716   407      Aus, Jaanus      Pärnu maakond 3:37:54         M35
## # ... with 93 more rows, and 1 more variables: Kuubik <dbl>

Ups, we got ‘Jaanus’-es too!

Let’s add end of a line anchor $ to get only ’Jaan’s and lets use str_detect verb:

tm_2013 %>% filter(str_detect(Nimi, ", Jaan$")) %>% tbl_df # Nimi is name and is given as 'lastname, firstname'. We use tbl_df to print only head of the table.

## # A tibble: 31 x 7
##     Koht    Nr           Nimi          Elukoht     Aeg Vanuseklass
##    <int> <int>          <chr>            <chr>   <chr>       <chr>
##  1   197   249     Jõgi, Jaan     Võru maakond 3:13:21         M60
##  2  1072  1177 Jagomägi, Jaan    Tartu maakond 3:51:05         M35
##  3  1639  1735   Saviir, Jaan    Lääne maakond 4:08:01         M50
##  4  1778   956   Leppik, Jaan    Harju maakond 4:12:01         M40
##  5  1793  1213    Harak, Jaan     Hiiu maakond 4:12:13         M55
##  6  1847  1359   Reiner, Jaan Viljandi maakond 4:13:53         M40
##  7  2049  6144 Lendsaar, Jaan     Võru maakond 4:20:49         M20
##  8  2076  6051   Joonas, Jaan     Võru maakond 4:21:38         M40
##  9  2193  2239    Sibul, Jaan    Harju maakond 4:24:38         M35
## 10  2321  1907  Pedajas, Jaan    Valga maakond 4:28:08         M35
## # ... with 21 more rows, and 1 more variables: Kuubik <dbl>
…
