A09-ggplot2.knit
…
Plots created by base graphics appear only on the screen and you cannot assign plot to an object for later use. Everything is created in place.

You can only draw on top of the plot, you cannot modify or delete existing content.

That was theory, you can read more from ggplot2-book, this is where rubber meets the road:

library(ggplot2) # load ggplot2 library
library(dplyr) # dplyr is necessary for piping operator and for some data munging
library(tidyr)

We use ggplot2 builtin dataset mpg with fuel economy data from 1999 and 2008 for 38 models of car:

mpg

## # A tibble: 234 x 11
##    manufacturer model    displ  year   cyl trans   drv     cty   hwy fl    class
##    <chr>        <chr>    <dbl> <int> <int> <chr>   <chr> <int> <int> <chr> <chr>
##  1 audi         a4         1.8  1999     4 auto(l… f        18    29 p     comp…
##  2 audi         a4         1.8  1999     4 manual… f        21    29 p     comp…
##  3 audi         a4         2    2008     4 manual… f        20    31 p     comp…
##  4 audi         a4         2    2008     4 auto(a… f        21    30 p     comp…
##  5 audi         a4         2.8  1999     6 auto(l… f        16    26 p     comp…
##  6 audi         a4         2.8  1999     6 manual… f        18    26 p     comp…
##  7 audi         a4         3.1  2008     6 auto(a… f        18    27 p     comp…
##  8 audi         a4 quat…   1.8  1999     4 manual… 4        18    26 p     comp…
##  9 audi         a4 quat…   1.8  1999     4 auto(l… 4        16    25 p     comp…
## 10 audi         a4 quat…   2    2008     4 manual… 4        20    28 p     comp…
## # … with 224 more rows
…
To compare distributions we can overlay histograms and density plots. To demonstrate this, let’s create dummy dataset of two normal distributions:

df2 <- tibble(pop = rep(c("N", "S"), each = 1000), 
              value = c(rnorm(1000, 20, 3), rnorm(1000, 25, 3)))
df2

## # A tibble: 2,000 x 2
##    pop   value
##    <chr> <dbl>
##  1 N      16.7
##  2 N      21.8
##  3 N      20.5
##  4 N      16.8
##  5 N      19.6
##  6 N      23.2
##  7 N      21.3
##  8 N      15.5
##  9 N      18.4
## 10 N      17.6
## # … with 1,990 more rows
…
