Reproducible Data Analysis in R
…
Iris dataset contains sepal and petal measurements of three iris species.

library(dplyr) # tbl_df 
tbl_df(iris)

## # A tibble: 150 x 5
##    Sepal.Length Sepal.Width Petal.Length Petal.Width Species
##           <dbl>       <dbl>        <dbl>       <dbl> <fct>  
##  1          5.1         3.5          1.4         0.2 setosa 
##  2          4.9         3            1.4         0.2 setosa 
##  3          4.7         3.2          1.3         0.2 setosa 
##  4          4.6         3.1          1.5         0.2 setosa 
##  5          5           3.6          1.4         0.2 setosa 
##  6          5.4         3.9          1.7         0.4 setosa 
##  7          4.6         3.4          1.4         0.3 setosa 
##  8          5           3.4          1.5         0.2 setosa 
##  9          4.4         2.9          1.4         0.2 setosa 
## 10          4.9         3.1          1.5         0.1 setosa 
## # … with 140 more rows
…
Plots created by base graphics appear only on the screen and you cannot assign plot to an object for later use. Everything is created in place.

You can only draw on top of the plot, you cannot modify or delete existing content.

That was theory, you can read more from ggplot2-book, this is where rubber meets the road:

library(ggplot2) # load ggplot2 library
library(dplyr) # dplyr is necessary for piping operator and for some data munging
library(tidyr)

We use ggplot2 builtin dataset mpg with fuel economy data from 1999 and 2008 for 38 models of car:

mpg

## # A tibble: 234 x 11
##    manufacturer model    displ  year   cyl trans   drv     cty   hwy fl    class
##    <chr>        <chr>    <dbl> <int> <int> <chr>   <chr> <int> <int> <chr> <chr>
##  1 audi         a4         1.8  1999     4 auto(l… f        18    29 p     comp…
##  2 audi         a4         1.8  1999     4 manual… f        21    29 p     comp…
##  3 audi         a4         2    2008     4 manual… f        20    31 p     comp…
##  4 audi         a4         2    2008     4 auto(a… f        21    30 p     comp…
##  5 audi         a4         2.8  1999     6 auto(l… f        16    26 p     comp…
##  6 audi         a4         2.8  1999     6 manual… f        18    26 p     comp…
##  7 audi         a4         3.1  2008     6 auto(a… f        18    27 p     comp…
##  8 audi         a4 quat…   1.8  1999     4 manual… 4        18    26 p     comp…
##  9 audi         a4 quat…   1.8  1999     4 auto(l… 4        16    25 p     comp…
## 10 audi         a4 quat…   2    2008     4 manual… 4        20    28 p     comp…
## # … with 224 more rows
…
To compare distributions we can overlay histograms and density plots. To demonstrate this, let’s create dummy dataset of two normal distributions:

df2 <- tibble(pop = rep(c("N", "S"), each = 1000), 
              value = c(rnorm(1000, 20, 3), rnorm(1000, 25, 3)))
df2

## # A tibble: 2,000 x 2
##    pop   value
##    <chr> <dbl>
##  1 N      18.4
##  2 N      14.6
##  3 N      19.6
##  4 N      20.5
##  5 N      25.5
##  6 N      23.4
##  7 N      19.2
##  8 N      21.1
##  9 N      19.3
## 10 N      23.5
## # … with 1,990 more rows
…
## [1] 3

Respectively, stringr library verb is str_detect():

str_detect(y, "Area")

## [1]  TRUE  TRUE  TRUE FALSE

Filter variables

We can use grepl in dplyr::filter to subset data frame. For example we want to look at the participants with first name ‘Jaan’ in 2013 Tartu Ski Marathon finish protocol:

tm_2013 %>% filter(grepl(", Jaan", Nimi)) %>% tbl_df # Nimi is name and is given as 'lastname, firstname'.

## # A tibble: 103 x 7
##     Koht    Nr Nimi             Elukoht            Aeg     Vanuseklass Kuubik
##    <int> <int> <chr>            <chr>              <chr>   <chr>        <dbl>
##  1   166   119 Laidvee, Jaanus  Harju maakond      3:11:07 M35           1.09
##  2   197   249 Jõgi, Jaan       Võru maakond       3:13:21 M60           1.10
##  3   219   248 Undrest, Jaanus  Lääne-Viru maakond 3:15:25 M35           1.11
##  4   289   237 Bauman, Jaanus   Lääne-Viru maakond 3:19:37 M35           1.13
##  5   388   626 Johanson, Jaanus Viljandi maakond   3:24:42 M40           1.15
##  6   499   345 Ritson, Jaanus   Harju maakond      3:29:41 M40           1.17
##  7   567   908 Tiisvend, Jaanus Harju maakond      3:32:42 M35           1.19
##  8   638   564 Koval, Jaanus    Harju maakond      3:35:33 M21           1.20
##  9   710   532 Olop, Jaanus     Harju maakond      3:37:32 M40           1.21
## 10   716   407 Aus, Jaanus      Pärnu maakond      3:37:54 M35           1.22
## # … with 93 more rows

Ups, we got ‘Jaanus’-es too!

Let’s add end of a line anchor $ to get only ’Jaan’s and lets use str_detect verb:

tm_2013 %>% filter(str_detect(Nimi, ", Jaan$")) %>% tbl_df # Nimi is name and is given as 'lastname, firstname'. We use tbl_df to print only head of the table.

## # A tibble: 31 x 7
##     Koht    Nr Nimi           Elukoht          Aeg     Vanuseklass Kuubik
##    <int> <int> <chr>          <chr>            <chr>   <chr>        <dbl>
##  1   197   249 Jõgi, Jaan     Võru maakond     3:13:21 M60           1.10
##  2  1072  1177 Jagomägi, Jaan Tartu maakond    3:51:05 M35           1.29
##  3  1639  1735 Saviir, Jaan   Lääne maakond    4:08:01 M50           1.38
##  4  1778   956 Leppik, Jaan   Harju maakond    4:12:01 M40           1.41
##  5  1793  1213 Harak, Jaan    Hiiu maakond     4:12:13 M55           1.41
##  6  1847  1359 Reiner, Jaan   Viljandi maakond 4:13:53 M40           1.42
##  7  2049  6144 Lendsaar, Jaan Võru maakond     4:20:49 M20           1.46
##  8  2076  6051 Joonas, Jaan   Võru maakond     4:21:38 M40           1.46
##  9  2193  2239 Sibul, Jaan    Harju maakond    4:24:38 M35           1.48
## 10  2321  1907 Pedajas, Jaan  Valga maakond    4:28:08 M35           1.50
## # … with 21 more rows
…
